…
``` r
dn_lq_nc <- dn_lq_nc %>%
  mutate(distance = haversine(
    longitude.x, latitude.x, 
    longitude.y, latitude.y))

dn_min_dist_nc <- dn_lq_nc %>%
  group_by(address.x) %>%
  summarize(min_distance = min(distance), .groups = "drop")

dn_min_dist_nc
```

    ## # A tibble: 28 × 2
    ##    address.x                 min_distance
    ##    <chr>                            <dbl>
    ##  1 1 Regent Park Boulevard          108. 
    ##  2 101 Wintergreen Dr               120. 
    ##  3 103 Sedgehill Dr                  26.7
    ##  4 1043 Jimmie Kerr Road             36.1
    ##  5 1201 S College Road              188. 
    ##  6 1209 Burkemount Avenue            39.1
    ##  7 1493 Us Hwy 74-A Bypass           70.1
    ##  8 1524 Dabney Dr                    59.5
    ##  9 1550 Four Seasons                115. 
    ## 10 1800 Princeton-Kenly Road         55.9
    ## # ℹ 18 more rows
…
``` r
dn_lq_tx <- dn_lq_tx %>%
  mutate(distance = haversine(
    longitude.x, latitude.x, 
    longitude.y, latitude.y))

dn_min_dist_tx <- dn_lq_tx %>%
  group_by(address.x) %>%
  summarize(min_distance = min(distance), .groups = "drop")

dn_min_dist_tx
```

    ## # A tibble: 200 × 2
    ##    address.x             min_distance
    ##    <chr>                        <dbl>
    ##  1 100 Cottonwood              33.6  
    ##  2 100 E Pinehurst              1.39 
    ##  3 100 Us Highway 79 S         33.9  
    ##  4 101 N Fm 707                10.3  
    ##  5 1011 Beltway Parkway        14.0  
    ##  6 1015 Spur 350 West           1.74 
    ##  7 1015 West Main St            1.10 
    ##  8 10367 Highway 59            37.6  
    ##  9 10433 N Central Expwy        0.618
    ## 10 105 W 42nd St                6.88 
    ## # ℹ 190 more rows
…
``` r
dn_lq_ca <- dn_lq_ca %>%
  mutate(distance = haversine(
    longitude.x, latitude.x, 
    longitude.y, latitude.y))

dn_min_dist_ca <- dn_lq_ca %>%
  group_by(address.x) %>%
  summarize(min_distance = min(distance), .groups = "drop")

dn_min_dist_ca
```

    ## # A tibble: 403 × 2
    ##    address.x            min_distance
    ##    <chr>                       <dbl>
    ##  1 #2 Serra Monte              6.24 
    ##  2 10 Airport Blvd             0.093
    ##  3 1000 Imola Ave             14.5  
    ##  4 1000 W Steele Lane         58.7  
    ##  5 1001 E Capitol             13.5  
    ##  6 1010 W Alameda Ave         24.8  
    ##  7 1011 Riley Street          11.4  
    ##  8 1014 N Main St            137.   
    ##  9 1015 Blossom Hill Rd       15.4  
    ## 10 1019 East Main St          80.3  
    ## # ℹ 393 more rows
…
